Player 9

Player 14

Player 8

Player 3

Player 6
Player 5

Player 10

Player 20

Player 14

Player 14

Player 18

Player 5

Player 7

Player 2

Player 1

Player 8

Player 3

Player 18

Player 10

Player 7

Player 9

Player 20
Player 7

Player 6

Player 20

Player 15

Player 14

Player 9

Player 10

Player 11

Player 1

Player 10

Player 12

Player 8

Player 11

Player 12

Player 10

Player 1

Player 2

Player 2

Player 12

Player 5

Player 2

Player 18

Player 15

Player 1

Player 10

Player 20

Player 18

Player 15

Player 11

Player 2

Player 12

Player 20

Player 7

Player 7

Player 8

Player 8

Player 13

Player 13

Player 13
Player 16

Player 5

Player 4

Player 15

Player 5

Player 14

Player 4

Player 4

Player 6

Player 9

Player 4

Player 9
Player 18
Player 8
Player 12

Player 15

Player 6

Player 4

Player 20

Player 6

Player 17

Player 18

Player 11

Player 12

Player 8

Player 2

Player 2

Player 14

Player 8

Player 6

Player 19

Player 4

Player 2

Player 6

Player 9

Player 10

Player 2

Player 3

Player 17
Player 2

Player 9

Player 4

Player 1

Player 19

Player 12

